arch-project.sim/sim_1/behav/xsim/simulate.log
Time resolution is 1 ps
[debug:memory] operation is READ, time=0
[PC MODULE @ 1000] pc_current=00000000, nextAddr=00000002, fullInstr=0000, signExtImm=00000000, branchAddr=00000002, pcSrc = 00000002, jumpAddr=00000000, flag_jump=0, pc_next=00000002
[PC MODULE @ 3000] pc_current=00000000, nextAddr=00000002, fullInstr=zzzz, signExtImm=00000000, branchAddr=00000002, pcSrc = 00000002, jumpAddr=00000000, flag_jump=0, pc_next=00000002
[PC MODULE @ 5000] pc_current=00000000, nextAddr=00000002, fullInstr=zzzz, signExtImm=00000000, branchAddr=00000002, pcSrc = 00000002, jumpAddr=00000000, flag_jump=0, pc_next=00000002
[debug:memory] operation is READ, time=6
[PC MODULE @ 7000] pc_current=00000002, nextAddr=00000004, fullInstr=zzzz, signExtImm=00000000, branchAddr=00000004, pcSrc = 00000004, jumpAddr=00000000, flag_jump=0, pc_next=00000004
[PC MODULE @ 9000] pc_current=00000002, nextAddr=00000004, fullInstr=zzzz, signExtImm=00000000, branchAddr=00000004, pcSrc = 00000004, jumpAddr=00000000, flag_jump=0, pc_next=00000004
[debug:memory] operation is READ, time=10
[PC MODULE @ 11000] pc_current=00000004, nextAddr=00000006, fullInstr=zzzz, signExtImm=00000000, branchAddr=00000006, pcSrc = 00000006, jumpAddr=00000000, flag_jump=0, pc_next=00000006
[PC MODULE @ 13000] pc_current=00000004, nextAddr=00000006, fullInstr=zzzz, signExtImm=00000000, branchAddr=00000006, pcSrc = 00000006, jumpAddr=00000000, flag_jump=0, pc_next=00000006
[debug:memory] operation is READ, time=14
[PC MODULE @ 15000] pc_current=00000006, nextAddr=00000008, fullInstr=zzzz, signExtImm=00000000, branchAddr=00000008, pcSrc = 00000008, jumpAddr=00000000, flag_jump=0, pc_next=00000008
[PC MODULE @ 17000] pc_current=00000006, nextAddr=00000008, fullInstr=zzzz, signExtImm=00000000, branchAddr=00000008, pcSrc = 00000008, jumpAddr=00000000, flag_jump=0, pc_next=00000008
[debug:memory] operation is READ, time=18
[PC MODULE @ 19000] pc_current=00000008, nextAddr=0000000a, fullInstr=zzzz, signExtImm=00000000, branchAddr=0000000a, pcSrc = 0000000a, jumpAddr=00000000, flag_jump=0, pc_next=0000000a
[PC MODULE @ 21000] pc_current=00000008, nextAddr=0000000a, fullInstr=zzzz, signExtImm=00000000, branchAddr=0000000a, pcSrc = 0000000a, jumpAddr=00000000, flag_jump=0, pc_next=0000000a
[debug:memory] operation is READ, time=22
[PC MODULE @ 23000] pc_current=0000000a, nextAddr=0000000c, fullInstr=zzzz, signExtImm=00000000, branchAddr=0000000c, pcSrc = 0000000c, jumpAddr=00000000, flag_jump=0, pc_next=0000000c
[PC MODULE @ 25000] pc_current=0000000a, nextAddr=0000000c, fullInstr=zzzz, signExtImm=00000000, branchAddr=0000000c, pcSrc = 0000000c, jumpAddr=00000000, flag_jump=0, pc_next=0000000c
[debug:memory] operation is READ, time=26
[PC MODULE @ 27000] pc_current=0000000c, nextAddr=0000000e, fullInstr=zzzz, signExtImm=00000000, branchAddr=0000000e, pcSrc = 0000000e, jumpAddr=00000000, flag_jump=0, pc_next=0000000e
[PC MODULE @ 29000] pc_current=0000000c, nextAddr=0000000e, fullInstr=zzzz, signExtImm=00000000, branchAddr=0000000e, pcSrc = 0000000e, jumpAddr=00000000, flag_jump=0, pc_next=0000000e
[debug:memory] operation is READ, time=30
[PC MODULE @ 31000] pc_current=0000000e, nextAddr=00000010, fullInstr=zzzz, signExtImm=00000000, branchAddr=00000010, pcSrc = 00000010, jumpAddr=00000000, flag_jump=0, pc_next=00000010
[PC MODULE @ 33000] pc_current=0000000e, nextAddr=00000010, fullInstr=zzzz, signExtImm=00000000, branchAddr=00000010, pcSrc = 00000010, jumpAddr=00000000, flag_jump=0, pc_next=00000010
[debug:memory] operation is READ, time=34
[PC MODULE @ 35000] pc_current=00000010, nextAddr=00000012, fullInstr=zzzz, signExtImm=00000000, branchAddr=00000012, pcSrc = 00000012, jumpAddr=00000000, flag_jump=0, pc_next=00000012
[PC MODULE @ 37000] pc_current=00000010, nextAddr=00000012, fullInstr=zzzz, signExtImm=00000000, branchAddr=00000012, pcSrc = 00000012, jumpAddr=00000000, flag_jump=0, pc_next=00000012
[debug:memory] operation is READ, time=38
[PC MODULE @ 39000] pc_current=00000012, nextAddr=00000014, fullInstr=zzzz, signExtImm=00000000, branchAddr=00000014, pcSrc = 00000014, jumpAddr=00000000, flag_jump=0, pc_next=00000014
[PC MODULE @ 41000] pc_current=00000012, nextAddr=00000014, fullInstr=zzzz, signExtImm=00000000, branchAddr=00000014, pcSrc = 00000014, jumpAddr=00000000, flag_jump=0, pc_next=00000014
[debug:memory] operation is READ, time=42
[PC MODULE @ 43000] pc_current=00000014, nextAddr=00000016, fullInstr=zzzz, signExtImm=00000000, branchAddr=00000016, pcSrc = 00000016, jumpAddr=00000000, flag_jump=0, pc_next=00000016
[PC MODULE @ 45000] pc_current=00000014, nextAddr=00000016, fullInstr=zzzz, signExtImm=00000000, branchAddr=00000016, pcSrc = 00000016, jumpAddr=00000000, flag_jump=0, pc_next=00000016
[debug:memory] operation is READ, time=46
[PC MODULE @ 47000] pc_current=00000016, nextAddr=00000018, fullInstr=zzzz, signExtImm=00000000, branchAddr=00000018, pcSrc = 00000018, jumpAddr=00000000, flag_jump=0, pc_next=00000018
[PC MODULE @ 49000] pc_current=00000016, nextAddr=00000018, fullInstr=zzzz, signExtImm=00000000, branchAddr=00000018, pcSrc = 00000018, jumpAddr=00000000, flag_jump=0, pc_next=00000018
[debug:memory] operation is READ, time=50
[PC MODULE @ 51000] pc_current=00000018, nextAddr=0000001a, fullInstr=zzzz, signExtImm=00000000, branchAddr=0000001a, pcSrc = 0000001a, jumpAddr=00000000, flag_jump=0, pc_next=0000001a
[PC MODULE @ 53000] pc_current=00000018, nextAddr=0000001a, fullInstr=zzzz, signExtImm=00000000, branchAddr=0000001a, pcSrc = 0000001a, jumpAddr=00000000, flag_jump=0, pc_next=0000001a
[debug:memory] operation is READ, time=54
[PC MODULE @ 55000] pc_current=0000001a, nextAddr=0000001c, fullInstr=zzzz, signExtImm=00000000, branchAddr=0000001c, pcSrc = 0000001c, jumpAddr=00000000, flag_jump=0, pc_next=0000001c
[PC MODULE @ 57000] pc_current=0000001a, nextAddr=0000001c, fullInstr=zzzz, signExtImm=00000000, branchAddr=0000001c, pcSrc = 0000001c, jumpAddr=00000000, flag_jump=0, pc_next=0000001c
[debug:memory] operation is READ, time=58
[PC MODULE @ 59000] pc_current=0000001c, nextAddr=0000001e, fullInstr=zzzz, signExtImm=00000000, branchAddr=0000001e, pcSrc = 0000001e, jumpAddr=00000000, flag_jump=0, pc_next=0000001e
[PC MODULE @ 61000] pc_current=0000001c, nextAddr=0000001e, fullInstr=zzzz, signExtImm=00000000, branchAddr=0000001e, pcSrc = 0000001e, jumpAddr=00000000, flag_jump=0, pc_next=0000001e
[debug:memory] operation is READ, time=62
[PC MODULE @ 63000] pc_current=0000001e, nextAddr=00000020, fullInstr=zzzz, signExtImm=00000000, branchAddr=00000020, pcSrc = 00000020, jumpAddr=00000000, flag_jump=0, pc_next=00000020
[PC MODULE @ 65000] pc_current=0000001e, nextAddr=00000020, fullInstr=zzzz, signExtImm=00000000, branchAddr=00000020, pcSrc = 00000020, jumpAddr=00000000, flag_jump=0, pc_next=00000020
[debug:memory] operation is READ, time=66
[PC MODULE @ 67000] pc_current=00000020, nextAddr=00000022, fullInstr=zzzz, signExtImm=00000000, branchAddr=00000022, pcSrc = 00000022, jumpAddr=00000000, flag_jump=0, pc_next=00000022
[PC MODULE @ 69000] pc_current=00000020, nextAddr=00000022, fullInstr=zzzz, signExtImm=00000000, branchAddr=00000022, pcSrc = 00000022, jumpAddr=00000000, flag_jump=0, pc_next=00000022
[debug:memory] operation is READ, time=70
[PC MODULE @ 71000] pc_current=00000022, nextAddr=00000024, fullInstr=zzzz, signExtImm=00000000, branchAddr=00000024, pcSrc = 00000024, jumpAddr=00000000, flag_jump=0, pc_next=00000024
[PC MODULE @ 73000] pc_current=00000022, nextAddr=00000024, fullInstr=zzzz, signExtImm=00000000, branchAddr=00000024, pcSrc = 00000024, jumpAddr=00000000, flag_jump=0, pc_next=00000024
[debug:memory] operation is READ, time=74
[PC MODULE @ 75000] pc_current=00000024, nextAddr=00000026, fullInstr=zzzz, signExtImm=00000000, branchAddr=00000026, pcSrc = 00000026, jumpAddr=00000000, flag_jump=0, pc_next=00000026
[PC MODULE @ 77000] pc_current=00000024, nextAddr=00000026, fullInstr=zzzz, signExtImm=00000000, branchAddr=00000026, pcSrc = 00000026, jumpAddr=00000000, flag_jump=0, pc_next=00000026
[debug:memory] operation is READ, time=78
[PC MODULE @ 79000] pc_current=00000026, nextAddr=00000028, fullInstr=zzzz, signExtImm=00000000, branchAddr=00000028, pcSrc = 00000028, jumpAddr=00000000, flag_jump=0, pc_next=00000028
[PC MODULE @ 81000] pc_current=00000026, nextAddr=00000028, fullInstr=zzzz, signExtImm=00000000, branchAddr=00000028, pcSrc = 00000028, jumpAddr=00000000, flag_jump=0, pc_next=00000028
[debug:memory] operation is READ, time=82
[PC MODULE @ 83000] pc_current=00000028, nextAddr=0000002a, fullInstr=zzzz, signExtImm=00000000, branchAddr=0000002a, pcSrc = 0000002a, jumpAddr=00000000, flag_jump=0, pc_next=0000002a
[PC MODULE @ 85000] pc_current=00000028, nextAddr=0000002a, fullInstr=zzzz, signExtImm=00000000, branchAddr=0000002a, pcSrc = 0000002a, jumpAddr=00000000, flag_jump=0, pc_next=0000002a
[debug:memory] operation is READ, time=86
[PC MODULE @ 87000] pc_current=0000002a, nextAddr=0000002c, fullInstr=zzzz, signExtImm=00000000, branchAddr=0000002c, pcSrc = 0000002c, jumpAddr=00000000, flag_jump=0, pc_next=0000002c
[PC MODULE @ 89000] pc_current=0000002a, nextAddr=0000002c, fullInstr=zzzz, signExtImm=00000000, branchAddr=0000002c, pcSrc = 0000002c, jumpAddr=00000000, flag_jump=0, pc_next=0000002c
[debug:memory] operation is READ, time=90
[PC MODULE @ 91000] pc_current=0000002c, nextAddr=0000002e, fullInstr=zzzz, signExtImm=00000000, branchAddr=0000002e, pcSrc = 0000002e, jumpAddr=00000000, flag_jump=0, pc_next=0000002e
[PC MODULE @ 93000] pc_current=0000002c, nextAddr=0000002e, fullInstr=zzzz, signExtImm=00000000, branchAddr=0000002e, pcSrc = 0000002e, jumpAddr=00000000, flag_jump=0, pc_next=0000002e
[debug:memory] operation is READ, time=94
[PC MODULE @ 95000] pc_current=0000002e, nextAddr=00000030, fullInstr=zzzz, signExtImm=00000000, branchAddr=00000030, pcSrc = 00000030, jumpAddr=00000000, flag_jump=0, pc_next=00000030
[PC MODULE @ 97000] pc_current=0000002e, nextAddr=00000030, fullInstr=zzzz, signExtImm=00000000, branchAddr=00000030, pcSrc = 00000030, jumpAddr=00000000, flag_jump=0, pc_next=00000030
[debug:memory] operation is READ, time=98
[PC MODULE @ 99000] pc_current=00000030, nextAddr=00000032, fullInstr=zzzz, signExtImm=00000000, branchAddr=00000032, pcSrc = 00000032, jumpAddr=00000000, flag_jump=0, pc_next=00000032
[PC MODULE @ 101000] pc_current=00000030, nextAddr=00000032, fullInstr=zzzz, signExtImm=00000000, branchAddr=00000032, pcSrc = 00000032, jumpAddr=00000000, flag_jump=0, pc_next=00000032
[debug:memory] operation is READ, time=102
[PC MODULE @ 103000] pc_current=00000032, nextAddr=00000034, fullInstr=zzzz, signExtImm=00000000, branchAddr=00000034, pcSrc = 00000034, jumpAddr=00000000, flag_jump=0, pc_next=00000034
[PC MODULE @ 105000] pc_current=00000032, nextAddr=00000034, fullInstr=zzzz, signExtImm=00000000, branchAddr=00000034, pcSrc = 00000034, jumpAddr=00000000, flag_jump=0, pc_next=00000034
[debug:memory] operation is READ, time=106
[PC MODULE @ 107000] pc_current=00000034, nextAddr=00000036, fullInstr=zzzz, signExtImm=00000000, branchAddr=00000036, pcSrc = 00000036, jumpAddr=00000000, flag_jump=0, pc_next=00000036
[PC MODULE @ 109000] pc_current=00000034, nextAddr=00000036, fullInstr=zzzz, signExtImm=00000000, branchAddr=00000036, pcSrc = 00000036, jumpAddr=00000000, flag_jump=0, pc_next=00000036
[debug:memory] operation is READ, time=110
[PC MODULE @ 111000] pc_current=00000036, nextAddr=00000038, fullInstr=zzzz, signExtImm=00000000, branchAddr=00000038, pcSrc = 00000038, jumpAddr=00000000, flag_jump=0, pc_next=00000038
[PC MODULE @ 113000] pc_current=00000036, nextAddr=00000038, fullInstr=zzzz, signExtImm=00000000, branchAddr=00000038, pcSrc = 00000038, jumpAddr=00000000, flag_jump=0, pc_next=00000038
[debug:memory] operation is READ, time=114
[PC MODULE @ 115000] pc_current=00000038, nextAddr=0000003a, fullInstr=zzzz, signExtImm=00000000, branchAddr=0000003a, pcSrc = 0000003a, jumpAddr=00000000, flag_jump=0, pc_next=0000003a
[PC MODULE @ 117000] pc_current=00000038, nextAddr=0000003a, fullInstr=zzzz, signExtImm=00000000, branchAddr=0000003a, pcSrc = 0000003a, jumpAddr=00000000, flag_jump=0, pc_next=0000003a
[debug:memory] operation is READ, time=118
[PC MODULE @ 119000] pc_current=0000003a, nextAddr=0000003c, fullInstr=zzzz, signExtImm=00000000, branchAddr=0000003c, pcSrc = 0000003c, jumpAddr=00000000, flag_jump=0, pc_next=0000003c
$finish called at time : 120 ns : File "/home/nfox/Documents/School/cse490-vivado/arch-project.srcs/sim_1/imports/cse490-project1/full_datapath_testbench.sv" Line 131
